{
  "mrid": {
    "AAAAA": {
      "mid": "AAAA",
      "start_date": "",
      "end_date": "",
      "arn": "or whatever other handlers we need.......",
      "private_ip": "",
      "tasks": [
        {
          "name":"from airflow",
          "dag":"",
          "start_date":"to seconds",
          "end_date":"to_seconds",
          "license":{
            "owner"
          }

        }
      ]

    }
  }
}