{
  "services": [
    {
      "name": "opt_jwpc",
      "name_long": "Joint Well Placement and Well Control Optimization",
      "name_abr": "b",
      "dags": [
        {
          "name": "testing_sim.py",
          "config": "",
          "dir": "/msched/"
        }
      ]
    },
    {
      "name": "sim_run",
      "dags": [
        {}
      ]
    },
    {
      "name": "mod_geostat",
      "name_abr": "g",
      "dags": [
        {}
      ]
    },
    {
      "name": "mod_calib",
      "name_long": "Model Calibration",
      "name_abr": "c",
      "dags": [
        {}
      ]
    },
    {
      "name": "opt_wp",
      "name_long": "Well Placement Optimization",
      "name_abr": "w",
      "dags": [
        {}
      ]
    },
    {
      "name": "opt_wc",
      "name_long": "Well Control Optimization",
      "name_abr": "f",
      "dags": [
        {}
      ]
    }
  ]
}
