{
  "users": [
    {
      "username": "",
      "first_name": "",
      "last_name": "",
      "password": "",
      "email": "",
      "phone": "",
      "fax": "",
      "street": "",
      "city": "",
      "state": "",
      "country": "",
      "zip": "",
      "org": "",
      "billing_groups": [
        {}
      ],
      "allowable_services": [
        {}
      ],
      "reporting_groups": [
        {}
      ],
      "access_groups": [
        {}
      ],
      "security_groups": [
        {}
      ],
      "permissions_profile": [
        {}
      ],
      "private": {
      },
      "notes": []
    }
  ]
}